/* XPM */
static char * title_3_active_xpm[] = {
"5 24 71 1",
" 	c #686869",
".	c #D4D5D4",
"+	c #D4D4D4",
"@	c #D3D3D4",
"#	c #D3D3D3",
"$	c #D4D3D3",
"%	c #D3D4D3",
"&	c #D1D2D1",
"*	c #D1D2D2",
"=	c #D2D1D1",
"-	c #D1D1D1",
";	c #D0D0CF",
">	c #CFCFD0",
",	c #D0D0D0",
"'	c #D0CFD0",
")	c #CFCFCF",
"!	c #CDCDCD",
"~	c #CDCECE",
"{	c #CECECE",
"]	c #CBCCCB",
"^	c #CBCBCB",
"/	c #CCCBCB",
"(	c #CCCCCC",
"_	c #C9CAC9",
":	c #CACACA",
"<	c #CAC9CA",
"[	c #C8C8C8",
"}	c #C8C8C7",
"|	c #C8C7C7",
"1	c #C6C6C6",
"2	c #C7C6C6",
"3	c #C6C6C5",
"4	c #C4C4C4",
"5	c #C5C4C4",
"6	c #C3C2C2",
"7	c #C0C0C1",
"8	c #C1C0C0",
"9	c #C0C0C0",
"0	c #BEBFBE",
"a	c #BEBEBE",
"b	c #BFBEBE",
"c	c #BDBCBC",
"d	c #BDBDBC",
"e	c #BCBCBC",
"f	c #BDBCBD",
"g	c #BBBABB",
"h	c #BBBBBA",
"i	c #BBBABA",
"j	c #B9B9B8",
"k	c #B9B8B8",
"l	c #B8B8B9",
"m	c #B7B7B6",
"n	c #B7B6B6",
"o	c #B7B6B7",
"p	c #B5B5B5",
"q	c #B6B5B5",
"r	c #B5B5B4",
"s	c #B5B4B5",
"t	c #B3B2B3",
"u	c #B4B3B2",
"v	c #B3B2B2",
"w	c #B3B3B3",
"x	c #B1B0B1",
"y	c #B1B1B0",
"z	c #B2B1B1",
"A	c #B2B0B1",
"B	c #B0AFAF",
"C	c #AFAFAF",
"D	c #AEADAD",
"E	c #ACABAB",
"F	c #ABABAB",
"     ",
".++++",
"@#$#%",
"&**=-",
";>,')",
"!!!~{",
"]]^/(",
"_:::<",
"[}}|[",
"11213",
"45444",
"66666",
"78889",
"0abbb",
"cdeff",
"ghhii",
"jklkk",
"mnnmo",
"pqrps",
"tuvwt",
"xyzzA",
"BCBBC",
"DDDDD",
"EEEFE"};
