/* XPM */
static char * top_right_inactive_xpm[] = {
"5 24 52 1",
" 	c None",
".	c #686869",
"+	c #ACABAB",
"@	c #D3D4D3",
"#	c #D3D3D3",
"$	c #D1D1D1",
"%	c #D2D1D1",
"&	c #D1D2D2",
"*	c #CFCFCF",
"=	c #D0CFD0",
"-	c #D0D0D0",
";	c #CECECE",
">	c #CDCECE",
",	c #CDCDCD",
"'	c #D2D0CE",
")	c #CCCCCC",
"!	c #CCCBCB",
"~	c #CBCBCB",
"{	c #CAC9CA",
"]	c #CACACA",
"^	c #C8C8C8",
"/	c #C8C7C7",
"(	c #C8C8C7",
"_	c #C6C6C5",
":	c #C6C6C6",
"<	c #C7C6C6",
"[	c #C4C4C4",
"}	c #C3C2C2",
"|	c #C0C0C0",
"1	c #C1C0C0",
"2	c #BFBEBE",
"3	c #BDBCBD",
"4	c #BCBCBC",
"5	c #BBBABA",
"6	c #BBBBBA",
"7	c #B9B8B8",
"8	c #B8B8B9",
"9	c #B7B6B7",
"0	c #B7B7B6",
"a	c #B7B6B6",
"b	c #B5B4B5",
"c	c #B5B5B5",
"d	c #B5B5B4",
"e	c #B3B2B3",
"f	c #B3B3B3",
"g	c #B3B2B2",
"h	c #B2B0B1",
"i	c #B2B1B1",
"j	c #AFAFAF",
"k	c #B0AFAF",
"l	c #AEADAD",
"m	c #ABABAB",
".    ",
"+.   ",
"@#.  ",
"$%&. ",
"*=-+.",
";>,'.",
")!~'.",
"{]]'.",
"^/('.",
"_:<'.",
"[[['.",
"}}}'.",
"|11'.",
"222'.",
"334'.",
"556'.",
"778'.",
"90a'.",
"bcd'.",
"efg'.",
"hii'.",
"jkk'.",
"lll'.",
"+m+'."};
